{
    "name": "HOFMM-Examples",
    "rootNamespace": "",
    "references": [
        "GUID:23957b91b4172024fa8577fcc3d3a50a",
        "GUID:f51ebe6a0ceec4240a699833d6309b23"
    ],
    "includePlatforms": [],
    "excludePlatforms": [],
    "allowUnsafeCode": false,
    "overrideReferences": false,
    "precompiledReferences": [],
    "autoReferenced": true,
    "defineConstraints": [],
    "versionDefines": [
        {
            "name": "com.cysharp.unitask",
            "expression": "2.2.5",
            "define": "UNITASK"
        }
    ],
    "noEngineReferences": false
}